Chapter 2 Getting Census Data | Memphis
…
From 2000 to 2010, Tennessee’s total population rose by 656,822 people. This was the 11th highest gain in total population of all states (plus D.C. and Puerto Rico). Before moving on, let’s also calculate the percent change in population to see which states grew the fastest.

totPop <- totPop %>% 
  mutate(pctChg = (pop10-pop00)/pop00) %>% 
  arrange(desc(pctChg))
totPop

## # A tibble: 52 × 5
##    NAME              pop00    pop10  popChg pctChg
##    <chr>             <dbl>    <dbl>   <dbl>  <dbl>
##  1 Nevada          1998257  2700551  702294  0.351
##  2 Arizona         5130632  6392017 1261385  0.246
##  3 Utah            2233169  2763885  530716  0.238
##  4 Idaho           1293953  1567582  273629  0.211
##  5 Texas          20851820 25145561 4293741  0.206
##  6 North Carolina  8049313  9535483 1486170  0.185
##  7 Georgia         8186453  9687653 1501200  0.183
##  8 Florida        15982378 18801310 2818932  0.176
##  9 Colorado        4301261  5029196  727935  0.169
## 10 South Carolina  4012012  4625364  613352  0.153
## # … with 42 more rows
…
